{
  "swagger": "2.0",
  "info": {
    "title": "testycool/answer.proto",
    "version": "version not set"
  },
  "tags": [
    {
      "name": "AnswerService"
    }
  ],
  "consumes": [
    "application/json"
  ],
  "produces": [
    "application/json"
  ],
  "paths": {
    "/v1/answers": {
      "get": {
        "operationId": "AnswerService_ListAnswers",
        "responses": {
          "200": {
            "description": "A successful response.",
            "schema": {
              "$ref": "#/definitions/v1ListAnswersResponse"
            }
          },
          "default": {
            "description": "An unexpected error response.",
            "schema": {
              "$ref": "#/definitions/googlerpcStatus"
            }
          }
        },
        "parameters": [
          {
            "name": "size",
            "in": "query",
            "required": false,
            "type": "integer",
            "format": "int32"
          },
          {
            "name": "page",
            "in": "query",
            "required": false,
            "type": "integer",
            "format": "int32"
          },
          {
            "name": "filter.participantId",
            "in": "query",
            "required": false,
            "type": "integer",
            "format": "int32"
          },
          {
            "name": "filter.examId",
            "in": "query",
            "required": false,
            "type": "integer",
            "format": "int32"
          }
        ],
        "tags": [
          "AnswerService"
        ]
      },
      "post": {
        "operationId": "AnswerService_CreateAnswer",
        "responses": {
          "200": {
            "description": "A successful response.",
            "schema": {
              "$ref": "#/definitions/v1CreateAnswerResponse"
            }
          },
          "default": {
            "description": "An unexpected error response.",
            "schema": {
              "$ref": "#/definitions/googlerpcStatus"
            }
          }
        },
        "parameters": [
          {
            "name": "body",
            "in": "body",
            "required": true,
            "schema": {
              "$ref": "#/definitions/v1CreateAnswerRequest"
            }
          }
        ],
        "tags": [
          "AnswerService"
        ]
      },
      "put": {
        "operationId": "AnswerService_UpdateAnswer",
        "responses": {
          "200": {
            "description": "A successful response.",
            "schema": {
              "$ref": "#/definitions/v1UpdateAnswerResponse"
            }
          },
          "default": {
            "description": "An unexpected error response.",
            "schema": {
              "$ref": "#/definitions/googlerpcStatus"
            }
          }
        },
        "parameters": [
          {
            "name": "body",
            "in": "body",
            "required": true,
            "schema": {
              "$ref": "#/definitions/v1UpdateAnswerRequest"
            }
          }
        ],
        "tags": [
          "AnswerService"
        ]
      }
    },
    "/v1/answers/{id}": {
      "get": {
        "operationId": "AnswerService_GetAnswer",
        "responses": {
          "200": {
            "description": "A successful response.",
            "schema": {
              "$ref": "#/definitions/v1GetAnswerResponse"
            }
          },
          "default": {
            "description": "An unexpected error response.",
            "schema": {
              "$ref": "#/definitions/googlerpcStatus"
            }
          }
        },
        "parameters": [
          {
            "name": "id",
            "in": "path",
            "required": true,
            "type": "integer",
            "format": "int32"
          }
        ],
        "tags": [
          "AnswerService"
        ]
      },
      "delete": {
        "operationId": "AnswerService_DeleteAnswer",
        "responses": {
          "200": {
            "description": "A successful response.",
            "schema": {
              "properties": {}
            }
          },
          "default": {
            "description": "An unexpected error response.",
            "schema": {
              "$ref": "#/definitions/googlerpcStatus"
            }
          }
        },
        "parameters": [
          {
            "name": "id",
            "in": "path",
            "required": true,
            "type": "integer",
            "format": "int32"
          }
        ],
        "tags": [
          "AnswerService"
        ]
      }
    }
  },
  "definitions": {
    "googlerpcStatus": {
      "type": "object",
      "properties": {
        "code": {
          "type": "integer",
          "format": "int32"
        },
        "message": {
          "type": "string"
        },
        "details": {
          "type": "array",
          "items": {
            "$ref": "#/definitions/protobufAny"
          }
        }
      }
    },
    "protobufAny": {
      "type": "object",
      "properties": {
        "@type": {
          "type": "string"
        }
      },
      "additionalProperties": {}
    },
    "v1Answer": {
      "type": "object",
      "properties": {
        "id": {
          "type": "integer",
          "format": "int32"
        },
        "participantId": {
          "type": "integer",
          "format": "int32"
        },
        "questionId": {
          "type": "integer",
          "format": "int32"
        },
        "choiceId": {
          "type": "integer",
          "format": "int32"
        },
        "essay": {
          "$ref": "#/definitions/v1EssayAnswer"
        },
        "isCorrect": {
          "type": "boolean"
        }
      }
    },
    "v1CreateAnswerRequest": {
      "type": "object",
      "properties": {
        "participantId": {
          "type": "integer",
          "format": "int32"
        },
        "questionId": {
          "type": "integer",
          "format": "int32"
        },
        "choiceId": {
          "type": "integer",
          "format": "int32"
        },
        "essay": {
          "$ref": "#/definitions/v1EssayAnswer"
        }
      }
    },
    "v1CreateAnswerResponse": {
      "type": "object",
      "properties": {
        "answer": {
          "$ref": "#/definitions/v1Answer"
        }
      }
    },
    "v1EssayAnswer": {
      "type": "object",
      "properties": {
        "format": {
          "$ref": "#/definitions/v1TextFormat"
        },
        "content": {
          "type": "string"
        }
      }
    },
    "v1GetAnswerResponse": {
      "type": "object",
      "properties": {
        "answer": {
          "$ref": "#/definitions/v1Answer"
        }
      }
    },
    "v1ListAnswersRequestFilter": {
      "type": "object",
      "properties": {
        "participantId": {
          "type": "integer",
          "format": "int32"
        },
        "examId": {
          "type": "integer",
          "format": "int32"
        }
      }
    },
    "v1ListAnswersResponse": {
      "type": "object",
      "properties": {
        "answers": {
          "type": "array",
          "items": {
            "$ref": "#/definitions/v1Answer"
          }
        },
        "size": {
          "type": "integer",
          "format": "int32"
        },
        "page": {
          "type": "integer",
          "format": "int32"
        },
        "totalSize": {
          "type": "integer",
          "format": "int32"
        }
      }
    },
    "v1TextFormat": {
      "type": "string",
      "enum": [
        "TEXT_FORMAT_UNKNOWN",
        "TEXT_FORMAT_PLAIN",
        "TEXT_FORMAT_HTML",
        "TEXT_FORMAT_MARKDOWN"
      ],
      "default": "TEXT_FORMAT_UNKNOWN"
    },
    "v1UpdateAnswerRequest": {
      "type": "object",
      "properties": {
        "answer": {
          "$ref": "#/definitions/v1Answer"
        }
      }
    },
    "v1UpdateAnswerResponse": {
      "type": "object",
      "properties": {
        "answer": {
          "$ref": "#/definitions/v1Answer"
        }
      }
    }
  }
}
