{
  "swagger": "2.0",
  "info": {
    "title": "testycool/choice.proto",
    "version": "version not set"
  },
  "tags": [
    {
      "name": "ChoiceService"
    }
  ],
  "consumes": [
    "application/json"
  ],
  "produces": [
    "application/json"
  ],
  "paths": {
    "/v1/choices": {
      "get": {
        "operationId": "ChoiceService_ListChoices",
        "responses": {
          "200": {
            "description": "A successful response.",
            "schema": {
              "$ref": "#/definitions/v1ListChoicesResponse"
            }
          },
          "default": {
            "description": "An unexpected error response.",
            "schema": {
              "$ref": "#/definitions/googlerpcStatus"
            }
          }
        },
        "parameters": [
          {
            "name": "size",
            "in": "query",
            "required": false,
            "type": "integer",
            "format": "int32"
          },
          {
            "name": "page",
            "in": "query",
            "required": false,
            "type": "integer",
            "format": "int32"
          },
          {
            "name": "filter.questionId",
            "in": "query",
            "required": false,
            "type": "integer",
            "format": "int32"
          }
        ],
        "tags": [
          "ChoiceService"
        ]
      },
      "post": {
        "operationId": "ChoiceService_CreateChoice",
        "responses": {
          "200": {
            "description": "A successful response.",
            "schema": {
              "$ref": "#/definitions/v1CreateChoiceResponse"
            }
          },
          "default": {
            "description": "An unexpected error response.",
            "schema": {
              "$ref": "#/definitions/googlerpcStatus"
            }
          }
        },
        "parameters": [
          {
            "name": "body",
            "in": "body",
            "required": true,
            "schema": {
              "$ref": "#/definitions/v1CreateChoiceRequest"
            }
          }
        ],
        "tags": [
          "ChoiceService"
        ]
      },
      "put": {
        "operationId": "ChoiceService_UpdateChoice",
        "responses": {
          "200": {
            "description": "A successful response.",
            "schema": {
              "$ref": "#/definitions/v1UpdateChoiceResponse"
            }
          },
          "default": {
            "description": "An unexpected error response.",
            "schema": {
              "$ref": "#/definitions/googlerpcStatus"
            }
          }
        },
        "parameters": [
          {
            "name": "body",
            "in": "body",
            "required": true,
            "schema": {
              "$ref": "#/definitions/v1UpdateChoiceRequest"
            }
          }
        ],
        "tags": [
          "ChoiceService"
        ]
      }
    },
    "/v1/choices/{id}": {
      "get": {
        "operationId": "ChoiceService_GetChoice",
        "responses": {
          "200": {
            "description": "A successful response.",
            "schema": {
              "$ref": "#/definitions/v1GetChoiceResponse"
            }
          },
          "default": {
            "description": "An unexpected error response.",
            "schema": {
              "$ref": "#/definitions/googlerpcStatus"
            }
          }
        },
        "parameters": [
          {
            "name": "id",
            "in": "path",
            "required": true,
            "type": "integer",
            "format": "int32"
          }
        ],
        "tags": [
          "ChoiceService"
        ]
      },
      "delete": {
        "operationId": "ChoiceService_DeleteChoice",
        "responses": {
          "200": {
            "description": "A successful response.",
            "schema": {
              "properties": {}
            }
          },
          "default": {
            "description": "An unexpected error response.",
            "schema": {
              "$ref": "#/definitions/googlerpcStatus"
            }
          }
        },
        "parameters": [
          {
            "name": "id",
            "in": "path",
            "required": true,
            "type": "integer",
            "format": "int32"
          }
        ],
        "tags": [
          "ChoiceService"
        ]
      }
    }
  },
  "definitions": {
    "googlerpcStatus": {
      "type": "object",
      "properties": {
        "code": {
          "type": "integer",
          "format": "int32"
        },
        "message": {
          "type": "string"
        },
        "details": {
          "type": "array",
          "items": {
            "$ref": "#/definitions/protobufAny"
          }
        }
      }
    },
    "protobufAny": {
      "type": "object",
      "properties": {
        "@type": {
          "type": "string"
        }
      },
      "additionalProperties": {}
    },
    "v1Choice": {
      "type": "object",
      "properties": {
        "id": {
          "type": "integer",
          "format": "int32"
        },
        "questionId": {
          "type": "integer",
          "format": "int32"
        },
        "isCorrect": {
          "type": "boolean"
        },
        "format": {
          "$ref": "#/definitions/v1TextFormat"
        },
        "content": {
          "type": "string"
        }
      }
    },
    "v1CreateChoiceRequest": {
      "type": "object",
      "properties": {
        "questionId": {
          "type": "integer",
          "format": "int32"
        },
        "isCorrect": {
          "type": "boolean"
        },
        "format": {
          "$ref": "#/definitions/v1TextFormat"
        },
        "content": {
          "type": "string"
        }
      }
    },
    "v1CreateChoiceResponse": {
      "type": "object",
      "properties": {
        "choice": {
          "$ref": "#/definitions/v1Choice"
        }
      }
    },
    "v1GetChoiceResponse": {
      "type": "object",
      "properties": {
        "choice": {
          "$ref": "#/definitions/v1Choice"
        }
      }
    },
    "v1ListChoicesRequestFilter": {
      "type": "object",
      "properties": {
        "questionId": {
          "type": "integer",
          "format": "int32"
        }
      }
    },
    "v1ListChoicesResponse": {
      "type": "object",
      "properties": {
        "choices": {
          "type": "array",
          "items": {
            "$ref": "#/definitions/v1Choice"
          }
        },
        "size": {
          "type": "integer",
          "format": "int32"
        },
        "page": {
          "type": "integer",
          "format": "int32"
        },
        "totalSize": {
          "type": "integer",
          "format": "int32"
        }
      }
    },
    "v1TextFormat": {
      "type": "string",
      "enum": [
        "TEXT_FORMAT_UNKNOWN",
        "TEXT_FORMAT_PLAIN",
        "TEXT_FORMAT_HTML",
        "TEXT_FORMAT_MARKDOWN"
      ],
      "default": "TEXT_FORMAT_UNKNOWN"
    },
    "v1UpdateChoiceRequest": {
      "type": "object",
      "properties": {
        "choice": {
          "$ref": "#/definitions/v1Choice"
        }
      }
    },
    "v1UpdateChoiceResponse": {
      "type": "object",
      "properties": {
        "choice": {
          "$ref": "#/definitions/v1Choice"
        }
      }
    }
  }
}
